{
  "project_info": {
    "project_number": "441692999852",
    "firebase_url": "https://clm-logistics.firebaseio.com",
    "project_id": "clm-logistics",
    "storage_bucket": "clm-logistics.appspot.com"
  },
  "client": [
    {
      "client_info": {
        "mobilesdk_app_id": "1:441692999852:android:3bfce34bd1bf8314580f09",
        "android_client_info": {
          "package_name": "ch.selise.smartcity.sgs"
        }
      },
      "oauth_client": [
        {
          "client_id": "441692999852-9ittatujvnpv4kjr7sl309ng6el026m8.apps.googleusercontent.com",
          "client_type": 3
        }
      ],
      "api_key": [
        {
          "current_key": "AIzaSyDqsj0bsVrqN0rNNIcE0mbryAYXNnWnsrw"
        }
      ],
      "services": {
        "appinvite_service": {
          "other_platform_oauth_client": [
            {
              "client_id": "441692999852-9ittatujvnpv4kjr7sl309ng6el026m8.apps.googleusercontent.com",
              "client_type": 3
            }
          ]
        }
      }
    }
  ],
  "configuration_version": "1"
}
