{
    "$schema": "../../node_modules/ng-packagr/ng-package.schema.json",
    "lib": {
        "entryFile": "index.ts",
        "externals": {
            "@angular/core":"ng.core",
            "@angular/common":"ng.common",
            "@angular/router":"ng.router",
            "nativescript-angular/common":"../../node_modules/nativescript-angular/common",
            "nativescript-angular/router":"../../node_modules/nativescript-angular/router",
            "nativescript-angular/forms":"../../node_modules/nativescript-angular/forms",

            "nativescript-localize/angular":"../../node_modules/nativescript-localize/angular",

            "nativescript-localstorage":"../../node_modules/nativescript-localstorage",
            "nativescript-loading-indicator":"../../node_modules/nativescript-loading-indicator",

            "tns-core-modules/ui/core/view":"../../node_modules/tns-core-modules/ui/core/view",
            "tns-core-modules/ui/page":"../../node_modules/tns-core-modules/ui/page",
            "tns-core-modules/ui/dialogs":"../../node_modules/tns-core-modules/ui/dialogs",
            "tns-core-modules/connectivity":"../../node_modules/tns-core-modules/connectivity",

            "@ecap3/tns-core":"../../node_modules/@ecap3/tns-core"
        }
    }
}