{
    "$schema": "./node_modules/ng-packagr/ng-package.schema.json",
    "lib": {
        "entryFile": "index.ts",
        "externals": {
            "@angular/core":"ng.core",
            "@angular/common":"ng.common",
            "@angular/router":"ng.router",
            "@angular/common/http":"./node_modules/@angular/common/http",
            "nativescript-localstorage":"../../node_modules/nativescript-localstorage",
            "nativescript-angular/common":"../../node_modules/nativescript-angular/common",
            "nativescript-angular/router":"../../node_modules/nativescript-angular/router",
            "tns-core-modules/connectivity":"../../node_modules/tns-core-modules/connectivity"
        }
    }
}